<?xml version="1.0" standalone="no"?>
<!DOCTYPE svg PUBLIC "-//W3C//DTD SVG 20010904//EN"
 "http://www.w3.org/TR/2001/REC-SVG-20010904/DTD/svg10.dtd">
<svg version="1.0" xmlns="http://www.w3.org/2000/svg"
 width="512.000000pt" height="512.000000pt" viewBox="0 0 512.000000 512.000000"
 preserveAspectRatio="xMidYMid meet">

<g transform="translate(0.000000,512.000000) scale(0.100000,-0.100000)"
fill="#000000" stroke="none">
<path d="M4775 4630 c-11 -5 -575 -564 -1254 -1243 l-1234 -1236 -451 446
c-248 245 -462 449 -475 454 -57 22 -131 -34 -131 -100 0 -34 26 -61 493 -529
270 -271 500 -498 511 -504 10 -5 34 -10 54 -10 33 0 99 64 1328 1293 1267
1267 1294 1295 1294 1332 0 49 -13 73 -50 92 -32 17 -55 18 -85 5z"/>
<path d="M1980 4434 c-14 -2 -59 -9 -100 -15 -99 -14 -247 -52 -356 -90 -691
-244 -1197 -864 -1299 -1591 -21 -148 -21 -412 0 -554 105 -724 599 -1332
1285 -1582 652 -238 1385 -115 1930 325 96 78 258 246 333 346 170 226 296
507 352 782 29 140 51 367 41 420 -11 55 -45 85 -98 85 -87 0 -103 -32 -112
-215 -34 -701 -535 -1345 -1218 -1569 -200 -66 -305 -81 -553 -81 -247 0 -353
16 -552 81 -807 267 -1317 1074 -1208 1911 27 203 74 358 165 548 263 545 787
919 1390 991 63 7 143 14 177 14 51 0 67 4 92 26 38 32 49 80 27 122 -9 17
-25 36 -35 42 -18 9 -204 12 -261 4z"/>
</g>
</svg>
