<?xml version="1.0" encoding="UTF-8" standalone="no"?>
<!-- Created with Inkscape (http://www.inkscape.org/) -->

<svg
   width="15.000061mm"
   height="14.26722mm"
   viewBox="0 0 15.000061 14.26722"
   version="1.1"
   id="svg5"
   xml:space="preserve"
   inkscape:version="1.3-dev (afe1d676, 2022-10-11)"
   sodipodi:docname="AppMockup.svg"
   xmlns:inkscape="http://www.inkscape.org/namespaces/inkscape"
   xmlns:sodipodi="http://sodipodi.sourceforge.net/DTD/sodipodi-0.dtd"
   xmlns="http://www.w3.org/2000/svg"
   xmlns:svg="http://www.w3.org/2000/svg"><sodipodi:namedview
     id="namedview7"
     pagecolor="#ffffff"
     bordercolor="#666666"
     borderopacity="1.0"
     inkscape:pageshadow="2"
     inkscape:pageopacity="0.0"
     inkscape:pagecheckerboard="0"
     inkscape:deskcolor="#d1d1d1"
     inkscape:document-units="mm"
     showgrid="false"
     showguides="true"
     inkscape:zoom="0.25"
     inkscape:cx="1562"
     inkscape:cy="908"
     inkscape:window-width="1920"
     inkscape:window-height="1017"
     inkscape:window-x="-8"
     inkscape:window-y="-8"
     inkscape:window-maximized="1"
     inkscape:current-layer="layer1"
     inkscape:showpageshadow="2"><sodipodi:guide
       position="-889.74731,759.82902"
       orientation="1,0"
       id="guide4289"
       inkscape:locked="false" /></sodipodi:namedview><defs
     id="defs2" /><g
     inkscape:label="Layer 1"
     inkscape:groupmode="layer"
     id="layer1"
     transform="translate(-759.1935,-101.51662)"><path
       id="path3651"
       style="fill:#ff7f2a;stroke-width:0.0684352"
       d="m 771.88829,101.5168 c -0.0169,7.3e-4 -0.0335,0.004 -0.0491,0.009 -0.0487,0.0166 -0.79045,1.13684 -1.64848,2.48926 -0.85802,1.35242 -1.57206,2.462 -1.58646,2.466 -0.0145,0.004 -0.23178,-0.13057 -0.48318,-0.29869 -0.65096,-0.43537 -0.7783,-0.48663 -1.00924,-0.40773 -0.12748,0.0435 -0.2126,0.10889 -0.2527,0.19379 -0.0533,0.1127 -0.19369,1.35267 -0.16329,1.44177 0.0154,0.0451 1.93566,1.31724 2.19728,1.45572 0.1113,0.0589 0.21871,0.10209 0.23771,0.0951 0.0629,-0.021 1.0602,-0.6285 1.1343,-0.6904 0.0395,-0.033 0.0829,-0.13269 0.0961,-0.22169 0.0474,-0.31773 -0.0357,-0.4224 -0.6687,-0.84233 l -0.59479,-0.39481 1.56993,-2.46754 c 1.36269,-2.14154 1.5643,-2.48439 1.526,-2.59675 -0.0458,-0.13408 -0.18738,-0.23608 -0.3054,-0.23099 z m -12.37754,3.74344 c -0.14254,0.003 -0.25939,0.11393 -0.29404,0.30593 -0.0201,0.11385 -0.0291,2.42028 -0.0191,5.12578 0.0178,4.7858 0.0214,4.92178 0.14004,5.00848 0.15543,0.11326 0.22552,0.11196 0.39791,-0.009 0.12907,-0.0904 0.13953,-0.14693 0.13953,-0.75345 v -0.65577 h 2.99981 a 4.6772165,4.8175335 0 0 1 -0.52245,-0.75396 h -2.47736 v -0.37672 -0.37672 h 2.13733 a 4.6772165,4.8175335 0 0 1 -0.19792,-0.75344 h -1.93941 v -1.13172 -1.13171 l 2.05258,0.006 a 4.6772165,4.8175335 0 0 1 0.28629,-0.75654 h -2.33887 v -1.78852 -1.78852 l -0.15917,-0.10439 c -0.0701,-0.046 -0.14037,-0.0669 -0.20515,-0.0656 z m 7.86308,1.1591 c 0.0433,-0.0102 2.23512,1.3966 2.29082,1.4702 0.0209,0.0277 -0.0721,0.11082 -0.22169,0.19792 -0.14194,0.0826 -0.2929,0.16165 -0.3359,0.17415 -0.0769,0.0234 -1.77853,-1.0633 -1.81023,-1.156 -0.029,-0.085 0.0374,-0.67727 0.077,-0.68627 z m -0.96325,1.57924 c -0.1496,3.5e-4 -0.3667,0.062 -0.66145,0.18448 -0.9961,0.41372 -1.78927,1.03336 -2.096,1.63659 -0.23937,0.47083 -0.40528,1.76943 -0.25528,2.0004 0.10125,0.15594 0.26999,0.16654 0.4532,0.0279 0.0835,-0.0631 0.1652,-0.10773 0.1819,-0.0997 0.0166,0.008 -0.11349,0.37228 -0.28939,0.80925 l -0.31987,0.79478 0.0661,0.54364 c 0.0901,0.73842 0.13203,0.77398 0.72244,0.61495 1.53747,-0.41413 3.05678,-1.12193 3.67678,-1.71256 0.56201,-0.53539 0.86799,-1.54306 0.82579,-2.72076 -0.0255,-0.71207 -0.13516,-0.92751 -0.4222,-0.82941 -0.13822,0.0472 -0.2334,0.24705 -0.185,0.38861 0.0464,0.13567 0.0408,0.92614 -0.009,1.35651 -0.0675,0.57893 -0.37259,1.21101 -0.72141,1.49344 -0.39911,0.32309 -1.05019,0.63801 -2.20348,1.06609 -1.03039,0.38245 -1.07238,0.39421 -1.10278,0.30541 -0.0854,-0.24988 -0.0184,-0.5063 0.40825,-1.56528 0.25119,-0.62343 0.45093,-1.19586 0.44493,-1.27176 -0.0151,-0.1811 -0.16478,-0.33483 -0.34365,-0.35243 -0.1145,-0.0114 -0.1888,0.0196 -0.3669,0.15193 -0.12287,0.091 -0.23661,0.15837 -0.25321,0.15037 -0.0165,-0.008 0.0124,-0.20618 0.0641,-0.44028 0.10279,-0.46531 0.2913,-0.7618 0.69453,-1.09347 0.30586,-0.25153 0.93191,-0.5886 1.37872,-0.74208 0.46462,-0.15967 0.57481,-0.23356 0.57981,-0.38912 0.007,-0.20672 -0.0743,-0.30793 -0.26665,-0.30747 z m 4.20647,1.02991 a 4.6772165,4.8175335 0 0 1 0.28318,0.76016 l 1.25212,0.004 0.30386,0.14935 c 0.64857,0.3193 1.04645,0.96743 1.04645,1.70532 v 0.37466 h -2.49959 a 4.6772165,4.8175335 0 0 1 -0.19844,0.75344 h 2.69803 v 0.37672 0.37672 h -3.03754 a 4.6772165,4.8175335 0 0 1 -0.52245,0.75396 h 3.55999 v 0.56069 c 0,0.30861 0.0263,0.63167 0.0589,0.71727 0.0786,0.20672 0.2836,0.26587 0.47801,0.13849 l 0.15399,-0.10077 v -2.18488 c 0,-1.825 -0.0169,-2.24158 -0.10128,-2.52646 -0.27735,-0.93618 -1.05444,-1.63116 -2.03141,-1.81642 -0.0912,-0.0173 -0.6071,-0.0313 -1.44383,-0.0419 z" /></g></svg>
