<?xml version="1.0" encoding="UTF-8" standalone="no"?>
<!-- Created with Inkscape (http://www.inkscape.org/) -->

<svg
   width="17.180586mm"
   height="13.793168mm"
   viewBox="0 0 17.180586 13.793168"
   version="1.1"
   id="svg5"
   xml:space="preserve"
   inkscape:version="1.3-dev (afe1d676, 2022-10-11)"
   sodipodi:docname="employee_assign_to.svg"
   xmlns:inkscape="http://www.inkscape.org/namespaces/inkscape"
   xmlns:sodipodi="http://sodipodi.sourceforge.net/DTD/sodipodi-0.dtd"
   xmlns="http://www.w3.org/2000/svg"
   xmlns:svg="http://www.w3.org/2000/svg"><sodipodi:namedview
     id="namedview7"
     pagecolor="#ffffff"
     bordercolor="#666666"
     borderopacity="1.0"
     inkscape:pageshadow="2"
     inkscape:pageopacity="0.0"
     inkscape:pagecheckerboard="0"
     inkscape:deskcolor="#d1d1d1"
     inkscape:document-units="mm"
     showgrid="false"
     showguides="true"
     inkscape:zoom="0.54110832"
     inkscape:cx="557.18973"
     inkscape:cy="-428.74964"
     inkscape:window-width="1920"
     inkscape:window-height="1017"
     inkscape:window-x="-8"
     inkscape:window-y="-8"
     inkscape:window-maximized="1"
     inkscape:current-layer="layer1"
     inkscape:showpageshadow="2"><sodipodi:guide
       position="-358.68622,859.69534"
       orientation="1,0"
       id="guide4289"
       inkscape:locked="false" /></sodipodi:namedview><defs
     id="defs2" /><g
     inkscape:label="Layer 1"
     inkscape:groupmode="layer"
     id="layer1"
     transform="translate(-228.13242,-201.38295)"><path
       style="fill:#ff7f2a;stroke-width:0.0719829"
       d="m 238.25419,215.08386 c -0.0618,-0.0482 -0.1342,-0.14566 -0.1608,-0.21652 -0.0563,-0.14999 0.6118,-3.12734 0.75348,-3.35782 0.0526,-0.0855 0.65628,-0.60977 1.34153,-1.16496 0.68526,-0.55518 1.30869,-1.11237 1.38541,-1.23818 0.20812,-0.34133 0.17568,-0.77308 -0.15842,-2.10805 l -0.29843,-1.19249 -0.51137,0.0485 c -0.59149,0.056 -0.94592,0.20582 -1.15101,0.48643 -0.11605,0.15878 -0.15295,0.35214 -0.1846,0.96735 l -0.0396,0.7689 -0.8278,0.63805 c -0.9631,0.74233 -1.17965,0.87012 -1.37136,0.80928 -0.18264,-0.058 -0.30681,-0.29507 -0.25747,-0.49164 0.0227,-0.0905 0.38287,-0.41111 0.86173,-0.76711 l 0.8227,-0.61164 0.0308,-0.64785 c 0.0358,-0.75191 0.17627,-1.09012 0.61875,-1.48987 0.35581,-0.32145 0.55589,-0.38491 1.65949,-0.52634 0.98145,-0.12578 1.3351,-0.1 1.99508,0.1457 1.28756,0.47922 1.63054,0.81934 1.96663,1.95026 0.19146,0.64421 0.19289,0.90474 0.006,1.07395 -0.11556,0.10458 -0.18712,0.11795 -0.34192,0.0639 -0.2021,-0.0706 -0.21816,-0.10582 -0.48101,-1.05529 -0.16194,-0.58493 -0.42973,-0.85763 -1.10098,-1.12116 -0.83012,-0.3259 -0.90339,-0.34148 -0.85556,-0.18196 0.24587,0.82001 0.55018,2.2602 0.55018,2.60378 0,0.48883 -0.14082,0.94438 -0.39491,1.2775 -0.0969,0.12701 -0.65501,0.61894 -1.24029,1.09317 -0.58529,0.47424 -1.13655,0.92321 -1.22503,0.99773 -0.13102,0.11035 -0.22068,0.40926 -0.48325,1.61113 -0.25833,1.18242 -0.35311,1.50069 -0.47696,1.60162 -0.18035,0.14698 -0.27617,0.15447 -0.43102,0.0337 z m 6.21138,-0.21293 c -0.18717,-0.16785 -0.6832,-0.62001 -1.10229,-1.00479 l -0.76199,-0.69959 -0.33955,-0.94207 c -0.35962,-0.99777 -0.37008,-1.17629 -0.0767,-1.30995 0.30508,-0.139 0.47068,0.056 0.7834,0.92253 0.31202,0.86461 0.36995,0.93689 1.71471,2.13902 0.51451,0.45995 0.62985,0.60086 0.62985,0.76949 0,0.20614 -0.21554,0.43055 -0.41353,0.43055 -0.0515,0 -0.24671,-0.13733 -0.43388,-0.30519 z m -13.63249,-2.35635 c -0.36656,-0.11074 -0.65127,-0.32769 -0.80533,-0.61368 -0.14914,-0.27684 -0.15594,-0.38565 -0.17654,-2.82533 -0.0118,-1.39557 -0.0393,-2.5374 -0.0612,-2.5374 -0.0219,0 -0.27504,0.21055 -0.56257,0.46789 -0.58438,0.52301 -0.81885,0.59036 -1.0147,0.29146 -0.0636,-0.097 -0.0963,-0.23736 -0.0726,-0.31184 0.0443,-0.13968 5.97874,-5.37795 6.27932,-5.54272 0.13171,-0.0722 0.20343,-0.0737 0.32814,-0.007 0.19391,0.10378 2.42767,2.10557 2.5654,2.29899 0.23108,0.32453 -0.16125,0.74957 -0.51667,0.55975 -0.0865,-0.0462 -0.61846,-0.50251 -1.18216,-1.01405 -0.56371,-0.51154 -1.05411,-0.91914 -1.08978,-0.90579 -0.0357,0.0134 -0.92684,0.78284 -1.98037,1.70997 l -1.91551,1.68569 0.001,2.77725 c 7.8e-4,2.09355 0.0235,2.82155 0.0921,2.95721 l 0.091,0.17995 2.59635,0.036 c 2.81688,0.039 2.83422,0.0417 2.83422,0.43663 0,0.41759 -0.0671,0.4278 -2.76937,0.42097 -1.34717,-0.003 -2.53548,-0.0322 -2.64068,-0.064 z m 1.83797,-3.55439 -0.20703,-0.17808 v -1.38014 -1.38014 l 0.20703,-0.17808 c 0.20639,-0.17753 0.21118,-0.17802 1.53615,-0.15573 1.73077,0.0291 1.60403,-0.10632 1.60403,1.71395 0,1.82026 0.12674,1.68484 -1.60403,1.71395 -1.32497,0.0223 -1.32976,0.0218 -1.53615,-0.15573 z m 2.34837,-1.55822 v -0.8638 h -0.89979 -0.89979 v 0.8638 0.86379 h 0.89979 0.89979 z m 4.0712,-3.1269 c -0.40947,-0.15134 -0.62796,-0.33416 -0.83013,-0.69458 -0.35615,-0.63493 -0.15997,-1.52391 0.42294,-1.91653 1.03407,-0.69652 2.31057,-0.0256 2.31057,1.21449 0,1.00493 -0.9926,1.73327 -1.90338,1.39662 z m 0.77438,-0.84392 c 0.23865,-0.12711 0.33261,-0.28647 0.33261,-0.56411 0,-0.38582 -0.27473,-0.64784 -0.67926,-0.64784 -0.28351,0 -0.46828,0.12733 -0.58292,0.40169 -0.0889,0.21283 -0.089,0.27926 -5.5e-4,0.49074 0.0562,0.13452 0.16192,0.2793 0.23492,0.32174 0.17626,0.10246 0.50071,0.10142 0.69531,-0.002 z"
       id="path3" /></g></svg>
