<?xml version="1.0" encoding="UTF-8" standalone="no"?>
<!-- Created with Inkscape (http://www.inkscape.org/) -->

<svg
   width="17.855453mm"
   height="15mm"
   viewBox="0 0 17.855453 15"
   version="1.1"
   id="svg5"
   xml:space="preserve"
   inkscape:version="1.3-dev (afe1d676, 2022-10-11)"
   sodipodi:docname="scale_add_day_sack.svg"
   xmlns:inkscape="http://www.inkscape.org/namespaces/inkscape"
   xmlns:sodipodi="http://sodipodi.sourceforge.net/DTD/sodipodi-0.dtd"
   xmlns:xlink="http://www.w3.org/1999/xlink"
   xmlns="http://www.w3.org/2000/svg"
   xmlns:svg="http://www.w3.org/2000/svg"><sodipodi:namedview
     id="namedview7"
     pagecolor="#ffffff"
     bordercolor="#666666"
     borderopacity="1.0"
     inkscape:pageshadow="2"
     inkscape:pageopacity="0.0"
     inkscape:pagecheckerboard="0"
     inkscape:deskcolor="#d1d1d1"
     inkscape:document-units="mm"
     showgrid="false"
     showguides="true"
     inkscape:zoom="0.35355339"
     inkscape:cx="804.68751"
     inkscape:cy="209.30361"
     inkscape:window-width="1920"
     inkscape:window-height="1017"
     inkscape:window-x="-8"
     inkscape:window-y="-8"
     inkscape:window-maximized="1"
     inkscape:current-layer="layer1"
     inkscape:showpageshadow="2"><sodipodi:guide
       position="-321.74342,1191.171"
       orientation="1,0"
       id="guide4289"
       inkscape:locked="false" /></sodipodi:namedview><defs
     id="defs2"><linearGradient
       inkscape:collect="always"
       id="linearGradient6315"><stop
         style="stop-color:#ffffff;stop-opacity:1;"
         offset="0"
         id="stop6317" /><stop
         style="stop-color:#ffffff;stop-opacity:0;"
         offset="1"
         id="stop6319" /></linearGradient><linearGradient
       inkscape:collect="always"
       id="linearGradient6287"><stop
         style="stop-color:#ffffff;stop-opacity:0.75"
         offset="0"
         id="stop6289" /><stop
         style="stop-color:#ffffff;stop-opacity:0;"
         offset="1"
         id="stop6291" /></linearGradient><filter
       inkscape:collect="always"
       style="color-interpolation-filters:sRGB"
       id="filter6363"
       x="-0.072919148"
       width="1.1458383"
       y="-0.035774533"
       height="1.0715491"><feGaussianBlur
         inkscape:collect="always"
         stdDeviation="14.424978"
         id="feGaussianBlur6365" /></filter><linearGradient
       inkscape:collect="always"
       xlink:href="#linearGradient6315"
       id="linearGradient1019"
       gradientUnits="userSpaceOnUse"
       x1="-280"
       y1="-70.494942"
       x2="-277.14285"
       y2="912.36218" /><radialGradient
       inkscape:collect="always"
       xlink:href="#linearGradient6287"
       id="radialGradient1027"
       gradientUnits="userSpaceOnUse"
       gradientTransform="matrix(0.25475905,2.1039682e-8,1.2080814e-6,0.57525296,306.9113,156.21069)"
       cx="-263.44296"
       cy="494.93127"
       fx="-263.44296"
       fy="494.93127"
       r="237.38585" /></defs><g
     inkscape:label="Layer 1"
     inkscape:groupmode="layer"
     id="layer1"
     transform="translate(-191.18961,-532.85863)"><path
       id="path13"
       style="fill:#ff7f2a;fill-opacity:1;stroke-width:0.0781428"
       d="m 196.99153,532.85863 c -2.05024,4.4e-4 -2.1234,0.0667 -2.29546,0.39945 -0.16981,0.32837 -0.085,0.51547 0.82992,1.8247 0.43189,0.61804 0.80175,1.16956 0.82165,1.22576 0.0216,0.061 -0.26715,0.32364 -0.71623,0.65061 -1.84924,1.34649 -3.2763,3.1823 -3.96617,5.10305 -0.48503,1.35035 -0.62404,3.21354 -0.30075,4.02818 0.32547,0.82014 1.06889,1.47001 1.92236,1.68 v 5.1e-4 c 0.3045,0.0738 1.63022,0.0968 5.52834,0.0847 l 3.56619,-0.0109 a 5.7546873,5.7546873 0 0 1 -1.99781,-0.90744 c -0.50518,8.9e-4 -1.06709,0.001 -1.73064,0.002 l -5.13302,10e-4 -0.42478,-0.21498 c -0.51523,-0.26129 -0.8887,-0.73008 -1.00149,-1.25573 -0.10135,-0.47257 0.006,-1.66939 0.22893,-2.56057 0.5001,-1.99485 2.0291,-4.01172 4.17649,-5.50923 l 0.46302,-0.32297 h 1.70584 1.70584 l 0.35605,0.2682 a 5.7546873,5.7546873 0 0 1 0.87436,-0.43564 c -0.01,-0.007 -0.0198,-0.0152 -0.0294,-0.0222 l -0.72399,-0.5271 0.41083,-0.58187 c 1.22267,-1.73083 1.38906,-2.00127 1.38906,-2.25465 0,-0.17332 -0.0644,-0.31661 -0.20154,-0.44545 l -0.20205,-0.18965 -3.49488,-0.0217 c -0.70919,-0.004 -1.28748,-0.008 -1.76062,-0.008 z m -0.13591,0.94309 c 0.21508,-6e-4 0.4554,-5.6e-4 0.71417,0 0.34503,7.4e-4 0.72289,0.002 1.11776,0.005 l 2.87218,0.0207 -0.79013,1.15445 -0.78962,1.15445 h -1.31413 c -1.15473,0 -1.32832,-0.0165 -1.43092,-0.13694 -0.25089,-0.29448 -1.48616,-2.14608 -1.45366,-2.17868 0.0107,-0.0104 0.42912,-0.0173 1.07435,-0.0191 z m 7.49774,4.10724 c -0.67115,0.0102 -1.34685,0.17252 -2.0097,0.48731 -0.44602,0.21181 -0.72947,0.42532 -1.2206,0.91881 -0.96686,0.97154 -1.36839,1.92825 -1.36839,3.26078 0,1.32904 0.40223,2.29014 1.36064,3.252 0.71923,0.72182 1.40611,1.1169 2.28152,1.3131 0.35537,0.0797 0.7643,0.10855 1.20251,0.0848 1.26205,-0.0684 2.14137,-0.46229 3.05407,-1.36891 1.46276,-1.45298 1.80018,-3.51972 0.88005,-5.38934 -0.35527,-0.7219 -1.24585,-1.64252 -1.94148,-2.00711 -0.72323,-0.37904 -1.47799,-0.5629 -2.23862,-0.55139 z m 5.1e-4,0.91778 c 1.15201,0.004 1.89332,0.30646 2.68821,1.09812 1.16286,1.15812 1.45696,2.79083 0.76791,4.26331 -0.447,0.95521 -1.51016,1.82378 -2.51612,2.05568 v -5.1e-4 c -0.54324,0.12524 -1.53807,0.0924 -2.03864,-0.0677 -0.62375,-0.19943 -1.05343,-0.46906 -1.55856,-0.97823 -0.73031,-0.73615 -1.08262,-1.58888 -1.08262,-2.62155 0,-1.01256 0.34746,-1.87337 1.04438,-2.5864 0.78227,-0.80038 1.63058,-1.16572 2.69544,-1.16272 z m -0.34054,1.44384 -0.0217,0.9157 -0.0222,0.91571 -0.9157,0.0217 -0.91571,0.0222 v 0.42995 0.42943 l 0.91829,0.0222 0.91829,0.0217 v 0.88315 c 0,0.48573 0.0247,0.90836 0.0553,0.93896 0.0306,0.0306 0.21531,0.0453 0.41031,0.0326 l 0.3545,-0.0232 0.0222,-0.91571 0.0222,-0.9157 0.9157,-0.0217 0.91571,-0.0222 v -0.42943 -0.42995 l -0.91571,-0.0222 -0.9157,-0.0217 -0.0222,-0.91571 -0.0222,-0.9157 H 204.404 Z" /></g></svg>
