<?xml version="1.0" encoding="UTF-8" standalone="no"?>
<!-- Created with Inkscape (http://www.inkscape.org/) -->

<svg
   width="12.447929mm"
   height="10.000061mm"
   viewBox="0 0 12.447929 10.000061"
   version="1.1"
   id="svg5"
   xml:space="preserve"
   inkscape:version="1.3-dev (afe1d676, 2022-10-11)"
   sodipodi:docname="tray_inventory.svg"
   xmlns:inkscape="http://www.inkscape.org/namespaces/inkscape"
   xmlns:sodipodi="http://sodipodi.sourceforge.net/DTD/sodipodi-0.dtd"
   xmlns:xlink="http://www.w3.org/1999/xlink"
   xmlns="http://www.w3.org/2000/svg"
   xmlns:svg="http://www.w3.org/2000/svg"><sodipodi:namedview
     id="namedview7"
     pagecolor="#ffffff"
     bordercolor="#666666"
     borderopacity="1.0"
     inkscape:pageshadow="2"
     inkscape:pageopacity="0.0"
     inkscape:pagecheckerboard="0"
     inkscape:deskcolor="#d1d1d1"
     inkscape:document-units="mm"
     showgrid="false"
     showguides="true"
     inkscape:zoom="0.90509668"
     inkscape:cx="-104.40874"
     inkscape:cy="29.831067"
     inkscape:window-width="1920"
     inkscape:window-height="1017"
     inkscape:window-x="-8"
     inkscape:window-y="-8"
     inkscape:window-maximized="1"
     inkscape:current-layer="layer1"
     inkscape:showpageshadow="2"><sodipodi:guide
       position="-241.25244,1221.1282"
       orientation="1,0"
       id="guide4289"
       inkscape:locked="false" /></sodipodi:namedview><defs
     id="defs2"><linearGradient
       inkscape:collect="always"
       id="linearGradient6315"><stop
         style="stop-color:#ffffff;stop-opacity:1;"
         offset="0"
         id="stop6317" /><stop
         style="stop-color:#ffffff;stop-opacity:0;"
         offset="1"
         id="stop6319" /></linearGradient><linearGradient
       inkscape:collect="always"
       id="linearGradient6287"><stop
         style="stop-color:#ffffff;stop-opacity:0.75"
         offset="0"
         id="stop6289" /><stop
         style="stop-color:#ffffff;stop-opacity:0;"
         offset="1"
         id="stop6291" /></linearGradient><filter
       inkscape:collect="always"
       style="color-interpolation-filters:sRGB"
       id="filter6363"
       x="-0.072919148"
       width="1.1458383"
       y="-0.035774533"
       height="1.0715491"><feGaussianBlur
         inkscape:collect="always"
         stdDeviation="14.424978"
         id="feGaussianBlur6365" /></filter><linearGradient
       inkscape:collect="always"
       xlink:href="#linearGradient6315"
       id="linearGradient5667"
       gradientUnits="userSpaceOnUse"
       x1="-280"
       y1="-70.494942"
       x2="-277.14285"
       y2="912.36218" /><radialGradient
       inkscape:collect="always"
       xlink:href="#linearGradient6287"
       id="radialGradient5675"
       gradientUnits="userSpaceOnUse"
       gradientTransform="matrix(0.25475905,2.1039682e-8,1.2080814e-6,0.57525296,141.84312,156.04791)"
       cx="-263.44296"
       cy="494.93127"
       fx="-263.44296"
       fy="494.93127"
       r="237.38585" /></defs><g
     inkscape:label="Layer 1"
     inkscape:groupmode="layer"
     id="layer1"
     transform="translate(-110.69863,-562.81579)"><path
       style="fill:#ff7f2a;fill-opacity:1;stroke-width:0.0520833"
       d="m 110.81439,572.73482 -0.11576,-0.0811 v -2.65034 -2.65034 l 0.11576,-0.0811 c 0.098,-0.0687 0.33737,-0.0811 1.5625,-0.0811 h 1.44674 v -2.10642 -2.10642 l 0.11576,-0.0811 c 0.10137,-0.071 0.47333,-0.0811 2.99479,-0.0811 2.80959,0 2.88155,0.003 2.9832,0.10417 0.10069,0.10069 0.10417,0.17361 0.10417,2.1875 v 2.08333 h 1.45834 c 1.38889,0 1.46329,0.005 1.5625,0.10417 0.10139,0.10139 0.10417,0.17361 0.10417,2.70833 0,2.53472 -0.003,2.60694 -0.10417,2.70833 -0.10296,0.10297 -0.17361,0.10417 -6.10821,0.10417 -5.34983,0 -6.01665,-0.009 -6.11979,-0.0811 z m 5.82174,-2.73142 v -2.1875 h -0.80729 -0.80729 l -7.9e-4,0.6901 c -7.9e-4,0.76785 -0.0337,0.88186 -0.30717,1.06615 -0.16252,0.10952 -0.23272,0.11875 -0.90283,0.11875 -1.16556,0 -1.23715,-0.0677 -1.23715,-1.16929 v -0.70571 h -0.65104 -0.65104 v 2.1875 2.1875 h 2.68229 2.68229 z m 5.93751,0 v -2.1875 h -0.65104 -0.65104 l -7.9e-4,0.6901 c -7.9e-4,0.76785 -0.0337,0.88186 -0.30717,1.06615 -0.16252,0.10952 -0.23272,0.11875 -0.90284,0.11875 -1.16557,0 -1.23715,-0.0677 -1.23715,-1.16929 v -0.70571 h -0.80729 -0.80729 v 2.1875 2.1875 h 2.68229 2.6823 z m -8.12501,-1.5625 v -0.625 h -0.65104 -0.65104 v 0.625 0.625 h 0.65104 0.65104 z m 6.25001,0 v -0.625 h -0.65105 -0.65104 v 0.625 0.625 h 0.65104 0.65105 z m -1.25001,-3.125 v -1.875 h -0.65104 -0.65104 l -7.9e-4,0.6901 c -7.9e-4,0.76785 -0.0337,0.88186 -0.30717,1.06615 -0.16252,0.10952 -0.23272,0.11875 -0.90283,0.11875 -1.16557,0 -1.23715,-0.0677 -1.23715,-1.16929 v -0.70571 h -0.65104 -0.65104 v 1.875 1.875 h 2.52604 2.52604 z m -1.875,-1.25 v -0.625 h -0.65104 -0.65104 v 0.625 0.625 h 0.65104 0.65104 z"
       id="path9101" /></g></svg>
